100079  1000  48378  PROJCS["British_National_Grid",GEOGCS["GCS_OSGB_1936",DATUM["D_OSGB_1936",SPHEROID["Airy_1830",6377563.396,299.3249646]],PRIMEM["Greenwich",0],UNIT["Degree",0.017453292519943295]],PROJECTION["Transverse_Mercator"],PARAMETER["False_Easting",400000],PARAMETER["False_Northing",-100000],PARAMETER["Central_Meridian",-2],PARAMETER["Scale_Factor",0.999601272],PARAMETER["Latitude_Of_Origin",49],UNIT["Meter",1]]
1 129517.156 910753.24699999997 0 1
2 129518.507 910773.12800000003 0 1
3 129576.796 910738.92500000005 0 1
4 129579.534 910779.255 0 1
...
48377 138875.40787294199 910967.11197928491 -0.53242283539843716 0
48378 131734.27683427371 910881.47451583378 -0.052764923539426925 0
93124 3 21
1 43715 43719 43718 
2 999 10772 27643 
3 896 8626 33617 
4 16540 15313 16539 
...
93123 47009 48378 32272 
93124 48340 48378 63 
